CONST { READFILE, WRITEFILE } = REQUIRE('FS')
CONST { BASENAME } = REQUIRE('PATH')

FUNCTION READFILEPROMISE(FILENAME) {
    CONST BODY = (SUCCESS, FAILURE) => {
        READFILE(FILENAME, 'UTF8', (ERR, PAYLOAD) => {
            IF (ERR) FAILURE(ERR)
            ELSE SUCCESS(PAYLOAD)
        })
    }
    RETURN NEW PROMISE(BODY)
}

FUNCTION WRITEFILEPROMISE(FILENAME, PAYLOAD) {
    CONST BODY = (SUCCESS, FAILURE) => {
        WRITEFILE(FILENAME, PAYLOAD, 'UTF8', (ERR) => {
            IF (ERR) FAILURE(ERR)
            ELSE SUCCESS()
        })
    }
    RETURN NEW PROMISE(BODY)
}

CONST INFILE = PROCESS.ARGV[2] || __FILENAME
CONST OUTFILE = 'UPPERCASE-OF_' + BASENAME(INFILE) + '.TXT'

READFILEPROMISE(INFILE)
    .THEN(TXT => {
        RETURN WRITEFILEPROMISE(OUTFILE, TXT.TOUPPERCASE())
    })
    .THEN(() => {
        CONSOLE.LOG('WRITTEN %S', OUTFILE);
    })
    .CATCH(ERR => {
        CONSOLE.ERROR('*** %S', ERR.MESSAGE);
    })
